{
    "en": {
        "greeting": "Hello!",
        "message": "Tap on the buttons below to switch languages",
        "glory": "Glory Glory, %name%!"
    },
    "ru": {
        "greeting": "Привет!",
        "message": "Нажимайте на кнопки для смены языка",
        "glory": "Славься славься, %name%!"
    }
}